<svg xmlns="http://www.w3.org/2000/svg" width="48" height="30" viewBox="0 0 48 30">
    <g fill="none" fill-rule="evenodd">
        <circle cx="23" cy="15" r="11.667" fill="#FF5F00"/>
        <path fill="#EB001B" d="M24.667 3.208A15.33 15.33 0 0 0 15.257 0C6.825 0 0 6.708 0 15s6.824 15 15.258 15a15.33 15.33 0 0 0 9.409-3.208A14.887 14.887 0 0 1 18.86 15c0-4.792 2.289-9.042 5.807-11.792z"/>
        <path fill="#F79E1B" d="M48 15c0 8.292-6.824 15-15.258 15a15.33 15.33 0 0 1-9.409-3.208c3.56-2.75 5.807-7 5.807-11.792S26.85 5.958 23.333 3.208A15.33 15.33 0 0 1 32.743 0C41.175 0 48 6.75 48 15z"/>
    </g>
</svg>
